1 10 20
100 200 125
201 210 89
900 1000 174
473049 36117 449
254529 922331 525
710143 209370 509
626491 176083 509
234123 13127 443
856521 712468 525
955083 579405 525
251890 703959 509
337378 153852 443
230124 506374 449
911510 975561 507
83655 403948 443
170160 869467 525
114056 702944 509
419572 217926 449
725745 151868 509
227554 625134 470
419203 708275 509
362995 687923 509
671172 655688 442
681583 180838 509
769884 540598 509
797121 431768 509
709470 691103 504
437244 965607 525
562961 604596 434
539143 682664 509
158588 678968 509
388335 181320 443
203111 24546 383
273068 337022 389
254661 114846 443
45521 243188 443
835339 349728 509
583633 87738 470
432702 16319 449
734492 205665 509
67387 410690 449
645764 549668 509
225163 174307 386
365393 582584 470
280473 293433 389
206355 486682 449
668533 806793 504
11085 332781 443
26749 81321 351
229217 67317 386
797842 292404 509
810366 809677 344
532606 511885 470
742833 747958 362
689646 622242 509
527234 194426 470
638000 329537 509
252178 129959 443
29373 637258 509
66346 395047 443
718203 473147 509
288194 561543 470
350184 15687 443
701259 163301 509
773997 977052 525
977458 652610 525
487357 582299 470
143635 711352 509
756955 266512 509
187900 91624 383
8329 195068 383
49644 773979 509
13656 570779 470
471313 900298 525
500013 580477 470
918687 912979 383
831182 814719 450
426380 653376 509
729188 77487 509
518036 857127 525
601076 921072 525
645991 547970 509
55122 830659 509
235457 518647 470
542435 431556 470
456172 843654 525
625636 968313 525
903429 698314 525
511434 937225 525
934613 985267 507
495943 695131 509
896077 34949 525
608205 820714 509
170394 649323 509
616670 315288 470
144628 120536 375
486317 168121 449
833124 631612 504
707346 959170 525
428538 610125 470
388949 331303 441
153914 425159 449
744440 273707 509
53522 968528 525
333360 659347 509
732750 397288 509
317273 687858 509
884183 838333 432
617754 7222 470
443579 807443 509
198838 389033 443
79142 743173 509
784121 131944 509
829986 42469 509
295971 579347 470
406489 513504 470
893461 249393 525
923114 867399 476
394350 157006 443
650367 154412 509
566359 910979 525
124007 583065 470
136149 412910 449
871852 316550 525
452073 96068 449
917511 317312 525
486476 283636 449
795607 398450 509
730030 576826 509
760283 216407 509
8199 941026 525
601549 557162 434
279738 492324 449
574276 410628 470
798008 492428 509
477551 741519 509
813241 91158 509
917289 344884 525
847360 750961 525
70394 579050 470
281981 133689 443
165288 203913 365
954892 36069 525
27976 756306 509
621490 117069 470
753725 947397 525
797217 907016 525
616203 141419 470
909030 396670 525
123634 585163 470
721614 25825 509
527158 320485 470
99817 194052 383
881652 935572 476
593227 276225 470
