1 1 1
7 3 17
3 41 112
68 40 113
34 132 122
181 32 125
294 148 128
245 167 128
27 26 112
659 265 145
30 794 171
289 640 144
759 778 153
1321 813 182
1362 62 182
1880 173 182
996 1428 182
623 1028 179
2758 1562 209
1496 3266 217
1552 1153 182
3286 1516 217
4423 4046 215
3367 2081 217
570 4822 238
436 2973 217
3943 3473 238
4396 3459 238
6674 2109 262
104 151 122
7808 1813 262
147 5832 238
4125 482 238
7371 7193 195
9067 7289 252
8364 3800 262
9039 9627 260
11112 1325 268
5958 12891 268
13825 739 276
8311 10822 260
9371 8061 260
10533 5166 262
14096 10896 276
4753 12759 268
16097 12082 276
269 15088 276
14788 16329 271
3887 7921 262
9931 15993 276
2255 9139 262
454 18224 279
4099 4108 158
2904 18016 279
14192 18300 279
1432 30241 308
22535 20915 269
14814 27838 308
27480 18352 308
14428 442 276
30241 32597 285
22530 4977 279
15281 19253 279
19073 14670 279
27031 21347 308
14643 26506 282
28497 28451 153
24865 14881 282
9170 5403 262
8689 29200 308
18518 6161 279
42474 4850 324
36189 13834 324
46856 28546 324
51358 35925 314
6916 18277 279
41356 53721 340
32872 16043 308
15112 13897 271
61584 51540 340
63183 63828 330
21964 54947 340
1620 42462 324
39926 18929 324
65 22227 279
24702 67950 340
25370 64701 340
48179 56504 340
7070 64342 340
70421 46120 340
4243 28787 308
67906 23575 340
21002 33104 308
81012 63310 351
47012 70287 340
25847 3623 282
77395 64219 351
82804 58814 351
52559 51303 340
53287 60744 322
162816 648942 509
400 255629 443
313810 77735 443
45543 724904 509
471265 436156 444
229352 167402 386
35846 214060 383
421395 355741 449
494721 56780 449
782436 717955 468
298326 55735 443
745975 277590 509
848864 518237 525
357695 429116 449
594574 352652 470
227054 716020 509
804535 304918 509
131171 227154 386
172880 535992 470
106095 487492 449
744567 585469 509
548574 624262 447
541808 4953 470
196312 96139 383
526700 448370 470
398991 725441 509
760573 277384 509
582895 798184 509
280660 440114 449
667462 644546 442
475059 142928 449
404553 281329 441
772773 196945 509
307456 732017 509
672132 282141 509
485473 562996 470
182164 608518 470
165993 355440 443
527918 38218 470
793073 154642 509
516396 447265 470
263438 529500 470
232199 443279 449
423737 329359 449
359469 670445 509
625212 450657 470
208141 18080 383
103430 1718 351
482084 117689 449
128704 756533 509

