1 10 20
100 200 125
201 210 89
900 1000 174
426608 853176 525
104950 902320 525
80668 997421 525
242325 193553 443
397369 148430 443
723254 444009 509
658860 92714 509
118719 190504 383
176256 191687 365
557538 643992 509
556575 326941 470
837328 619940 509
250580 126618 443
249712 914405 525
546307 536614 408
277132 472143 449
771301 352212 509
600404 762773 509
56563 121272 354
549844 499769 470
482424 810568 509
941748 210953 525
910699 59316 525
382816 274391 441
320063 971529 525
412442 181804 449
174839 731778 509
240558 856412 525
704121 715700 504
858728 307413 525
767890 94128 509
725137 226271 509
182822 83536 383
949184 482118 525
21644 384267 443
647574 515499 509
306684 597921 470
769016 406696 509
314564 168417 443
412799 461179 418
427626 741210 509
223864 77933 386
645045 503484 509
61293 398020 443
184567 786536 509
945117 380971 525
685965 314183 509
268875 578967 470
71794 501602 449
255123 703400 509
587164 829862 509
859297 87038 525
355469 703354 509
591303 188468 470
91199 241619 443
571019 221331 470
940221 524435 525
725796 398073 509
971779 803957 525
718038 779988 468
345151 134469 443
794894 582316 509
758878 607473 509
570685 547504 421
606270 665414 509
424657 843631 525
266669 856765 525
417172 147763 449
138055 267848 443
788396 56969 509
118885 421600 449
757613 392069 509
402300 119103 443
375960 503619 449
582308 854201 525
209556 883123 525
648186 327907 509
798131 152163 509
581152 49834 470
456386 128456 449
745145 655000 504
130682 390240 443
105495 470435 449
218952 97126 386
776756 821673 468
986282 755403 525
929969 972174 507
373024 783805 509
541146 46497 470
763422 264744 509
354205 789935 509
664290 953977 525
351132 806565 509
970820 107774 525
529055 402450 470
603436 954694 525
325477 294591 384
220612 438650 449
475980 694464 509
849173 471843 525
742984 510976 509
975872 25963 525
509046 570390 470
797730 813568 406
859532 417949 525
401073 500154 449
97916 224978 386
57152 550636 470
310511 286618 389
10505 68357 340
117737 13642 354
511635 566495 470
749324 469222 509
52229 706200 509
406871 792769 509
68491 103282 351
457841 848583 525
164222 914192 525
497306 12595 449
320678 177181 443
819298 851607 525
706909 886130 525
106756 926935 525
719736 707571 411
918164 736649 525
43447 226669 386
167437 476372 449
183717 103392 383
637612 842047 525
599513 528821 452
563178 245867 470
864843 779887 525
497513 841014 525
791745 269675 509
539742 241165 470
411007 725393 509
382522 144841 443
927238 693443 525
664097 353337 509
629767 963208 525
153088 333494 443
956105 73575 525
357430 627259 509
480252 70072 449
146865 649891 509
841513 775347 525
172206 577188 470
650149 879497 525
343396 501003 449
